x-axis,1
second,Volt
-6.800000E-06,+82.296483219E-03
-6.793200E-06,+61.793970875E-03
-6.786400E-06,+29.432162177E-03
-6.779600E-06,+21.391961258E-03
-6.772800E-06,+9.130654857E-03
-6.766000E-06,+5.110554397E-03
-6.759200E-06,+1.793971518E-03
-6.752400E-06,-1.120601315E-03
-6.745600E-06,-1.623113872E-03
-6.738800E-06,-2.929646522E-03
-6.732000E-06,-2.125626430E-03
-6.725200E-06,-1.170852571E-03
-6.718400E-06,+21.040202468E-03
-6.711600E-06,+55.914573953E-03
-6.704800E-06,+82.246231963E-03
-6.698000E-06,+83.402010845E-03
-6.691200E-06,+55.211056373E-03
-6.684400E-06,+27.221106924E-03
-6.677600E-06,+17.974875867E-03
-6.670800E-06,+9.934674948E-03
-6.664000E-06,+3.502514213E-03
-6.657200E-06,+1.894474030E-03
-6.650400E-06,-1.321606338E-03
-6.643600E-06,-1.623113872E-03
-6.636800E-06,-2.125626430E-03
-6.630000E-06,-1.623113872E-03
-6.623200E-06,+3.804021748E-03
-6.616400E-06,+34.356785240E-03
-6.609600E-06,+69.532664260E-03
-6.602800E-06,+91.140704229E-03
-6.596000E-06,+82.497488242E-03
-6.589200E-06,+48.778895638E-03
-6.582400E-06,+28.628142085E-03
-6.575600E-06,+15.763820615E-03
-6.568800E-06,+9.180906112E-03
-6.562000E-06,+3.050252912E-03
-6.555200E-06,+437.187613E-06
-6.548400E-06,-1.321606338E-03
-6.541600E-06,-1.623113872E-03
-6.534800E-06,-2.125626430E-03
-6.528000E-06,-1.321606338E-03
-6.521200E-06,+12.798996526E-03
-6.514400E-06,+49.432161963E-03
-6.507600E-06,+83.703518379E-03
-6.500800E-06,+99.130653893E-03
-6.494000E-06,+80.537689268E-03
-6.487200E-06,+43.452262529E-03
-6.480400E-06,+28.628142085E-03
-6.473600E-06,+13.653267873E-03
-6.466800E-06,+9.934674948E-03
-6.460000E-06,+2.698494121E-03
-6.453200E-06,+989.951426E-06
-6.446400E-06,-1.120601315E-03
-6.439600E-06,-2.125626430E-03
-6.432800E-06,-2.125626430E-03
-6.426000E-06,-15.073689E-06
-6.419200E-06,+25.663317996E-03
-6.412400E-06,+64.859297476E-03
-6.405600E-06,+97.371859942E-03
-6.398800E-06,+104.005025700E-03
-6.392000E-06,+75.914573739E-03
-6.385200E-06,+39.432162070E-03
-6.378400E-06,+27.824121993E-03
-6.371600E-06,+12.849247782E-03
-6.364800E-06,+7.572865929E-03
-6.358000E-06,+2.698494121E-03
-6.351200E-06,+286.433846E-06
-6.344400E-06,-668.340013E-06
-6.337600E-06,-2.427133964E-03
-6.330800E-06,-2.125626430E-03
-6.324000E-06,+5.713569466E-03
-6.317200E-06,+40.939699742E-03
-6.310400E-06,+81.542714383E-03
-6.303600E-06,+108.628141228E-03
-6.296800E-06,+104.005025700E-03
-6.290000E-06,+69.984925562E-03
-6.283200E-06,+35.663317889E-03
-6.276400E-06,+24.608041625E-03
-6.269600E-06,+13.150755316E-03
-6.262800E-06,+6.768845837E-03
-6.256000E-06,+2.698494121E-03
-6.249200E-06,-1.321606338E-03
-6.242400E-06,-668.340013E-06
-6.235600E-06,-2.427133964E-03
-6.228800E-06,-1.321606338E-03
-6.222000E-06,+16.517589451E-03
-6.215200E-06,+57.170855347E-03
-6.208400E-06,+97.020101151E-03
-6.201600E-06,+116.517588380E-03
-6.194800E-06,+102.396985516E-03
-6.188000E-06,+63.552764826E-03
-6.181200E-06,+36.467337981E-03
-6.174400E-06,+21.592966281E-03
-6.167600E-06,+13.150755316E-03
-6.160800E-06,+5.110554397E-03
-6.154000E-06,+3.502514213E-03
-6.147200E-06,-517.586246E-06
-6.140400E-06,-1.472360105E-03
-6.133600E-06,-2.577887732E-03
-6.126800E-06,+286.433846E-06
-6.120000E-06,+29.834172223E-03
-6.113200E-06,+72.547739604E-03
-6.106400E-06,+109.080402530E-03
-6.099600E-06,+120.085427538E-03
-6.092800E-06,+95.211055945E-03
-6.086000E-06,+54.407036281E-03
-6.079200E-06,+34.859297797E-03
-6.072400E-06,+17.572865821E-03
-6.065600E-06,+11.743720155E-03
-6.058800E-06,+3.552765469E-03
-6.052000E-06,+2.246232820E-03
-6.045200E-06,-1.321606338E-03
-6.038400E-06,-1.924621407E-03
-6.031600E-06,-2.929646522E-03
-6.024800E-06,+5.914574489E-03
-6.018000E-06,+43.150754995E-03
-6.011200E-06,+86.869347491E-03
-6.004400E-06,+118.075377308E-03
-5.997600E-06,+118.628141121E-03
-5.990800E-06,+86.366834934E-03
-5.984000E-06,+44.306533877E-03
-5.977200E-06,+31.391961151E-03
-5.970400E-06,+15.412061824E-03
-5.963600E-06,+9.633167414E-03
-5.956800E-06,+3.552765469E-03
-5.950000E-06,+286.433846E-06
-5.943200E-06,-1.170852571E-03
-5.936400E-06,-2.125626430E-03
-5.929600E-06,-1.773867640E-03
-5.922800E-06,+14.708544244E-03
-5.916000E-06,+56.819096557E-03
-5.909200E-06,+98.778895102E-03
-5.902400E-06,+122.497487813E-03
-5.895600E-06,+111.090452760E-03
-5.888800E-06,+73.502513464E-03
-5.882000E-06,+38.427136955E-03
-5.875200E-06,+25.110554183E-03
-5.868400E-06,+14.758795500E-03
-5.861600E-06,+7.221107138E-03
-5.854800E-06,+2.748745377E-03
-5.848000E-06,-969.847548E-06
-5.841200E-06,-1.321606338E-03
-5.834400E-06,-2.125626430E-03
-5.827600E-06,-517.586246E-06
-5.820800E-06,+24.356785347E-03
-5.814000E-06,+68.025126588E-03
-5.807200E-06,+106.015075929E-03
-5.800400E-06,+120.889447629E-03
-5.793600E-06,+99.834171473E-03
-5.786800E-06,+58.276382973E-03
-5.780000E-06,+36.015076679E-03
-5.773200E-06,+19.482413540E-03
-5.766400E-06,+12.547740247E-03
-5.759600E-06,+4.306534305E-03
-5.752800E-06,+2.698494121E-03
-5.746000E-06,-819.093781E-06
-5.739200E-06,-2.125626430E-03
-5.732400E-06,-2.125626430E-03
-5.725600E-06,+3.050252912E-03
-5.718800E-06,+35.613066633E-03
-5.712000E-06,+77.221106389E-03
-5.705200E-06,+109.231156297E-03
-5.698400E-06,+114.608040662E-03
-5.691600E-06,+84.557789727E-03
-5.684800E-06,+43.000001227E-03
-5.678000E-06,+30.386936036E-03
-5.671200E-06,+14.758795500E-03
-5.664400E-06,+9.783921181E-03
-5.657600E-06,+3.201006679E-03
-5.650800E-06,-467.334990E-06
-5.644000E-06,-1.321606338E-03
-5.637200E-06,-2.125626430E-03
-5.630400E-06,-2.125626430E-03
-5.623600E-06,+7.673368440E-03
-5.616800E-06,+43.653267552E-03
-5.610000E-06,+84.457287216E-03
-5.603200E-06,+108.929648763E-03
-5.596400E-06,+102.547739283E-03
-5.589600E-06,+66.567840171E-03
-5.582800E-06,+34.859297797E-03
-5.576000E-06,+22.698493907E-03
-5.569200E-06,+13.050252805E-03
-5.562400E-06,+5.311559420E-03
-5.555600E-06,+2.396986587E-03
-5.548800E-06,-1.321606338E-03
-5.542000E-06,-1.321606338E-03
-5.535200E-06,-2.125626430E-03
-5.528400E-06,-2.125626430E-03
-5.521600E-06,+14.105529175E-03
-5.514800E-06,+51.693468471E-03
-5.508000E-06,+88.125628885E-03
-5.501200E-06,+104.105528211E-03
-5.494400E-06,+87.472362560E-03
-5.487600E-06,+49.231156940E-03
-5.480800E-06,+30.889448593E-03
-5.474000E-06,+15.914574382E-03
-5.467200E-06,+9.934674948E-03
-5.460400E-06,+2.698494121E-03
-5.453600E-06,+788.946403E-06
-5.446800E-06,-1.321606338E-03
-5.440000E-06,-2.577887732E-03
-5.433200E-06,-2.125626430E-03
-5.426400E-06,-1.321606338E-03
-5.419600E-06,+21.341710002E-03
-5.412800E-06,+58.125629206E-03
-5.406000E-06,+89.633166557E-03
-5.399200E-06,+96.618091105E-03
-5.392400E-06,+70.939699421E-03
-5.385600E-06,+35.060302820E-03
-5.378800E-06,+24.457287858E-03
-5.372000E-06,+11.542715132E-03
-5.365200E-06,+6.618092069E-03
-5.358400E-06,+2.095479053E-03
-5.351600E-06,-517.586246E-06
-5.344800E-06,-1.321606338E-03
-5.338000E-06,-2.929646522E-03
-5.331200E-06,-2.125626430E-03
-5.324400E-06,+1.542715239E-03
-5.317600E-06,+28.276383295E-03
-5.310800E-06,+63.753769849E-03
-5.304000E-06,+89.633166557E-03
-5.297200E-06,+85.211056052E-03
-5.290400E-06,+54.105528747E-03
-5.283600E-06,+28.929649619E-03
-5.276800E-06,+18.025127123E-03
-5.270000E-06,+10.085428716E-03
-5.263200E-06,+3.251257935E-03
-5.256400E-06,+1.894474030E-03
-5.249600E-06,-2.125626430E-03
-5.242800E-06,-2.125626430E-03
-5.236000E-06,-2.427133964E-03
-5.229200E-06,-2.125626430E-03
-5.222400E-06,+4.959800630E-03
-5.215600E-06,+35.814071656E-03
-5.208800E-06,+67.723619053E-03
-5.202000E-06,+87.120603770E-03
-5.195200E-06,+73.804020998E-03
-5.188400E-06,+39.432162070E-03
-5.181600E-06,+26.517589344E-03
-5.174800E-06,+11.592966388E-03
-5.168000E-06,+7.522614673E-03
-5.161200E-06,+1.241207705E-03
-5.154400E-06,+135.680079E-06
-5.147600E-06,-2.125626430E-03
-5.140800E-06,-2.125626430E-03
-5.134000E-06,-2.427133964E-03
-5.127200E-06,-2.125626430E-03
-5.120400E-06,+10.386936250E-03
-5.113600E-06,+43.050252483E-03
-5.106800E-06,+72.597990860E-03
-5.100000E-06,+83.402010845E-03
-5.093200E-06,+60.989950784E-03
-5.086400E-06,+28.175880783E-03
-5.079600E-06,+20.889448700E-03
-5.072800E-06,+9.180906112E-03
-5.066000E-06,+5.462313187E-03
-5.059200E-06,+1.090453938E-03
-5.052400E-06,-1.321606338E-03
-5.045600E-06,-1.623113872E-03
-5.038800E-06,-2.929646522E-03
-5.032000E-06,-2.577887732E-03
-5.025200E-06,-1.974872663E-03
-5.018400E-06,+19.080403494E-03
-5.011600E-06,+52.396986051E-03
-5.004800E-06,+77.422111412E-03
-4.998000E-06,+77.773870202E-03
-4.991200E-06,+49.582915730E-03
-4.984400E-06,+24.608041625E-03
-4.977600E-06,+16.065328149E-03
-4.970800E-06,+9.130654857E-03
-4.964000E-06,+3.050252912E-03
-4.957200E-06,+1.894474030E-03
-4.950400E-06,-2.527636476E-03
-4.943600E-06,-2.125626430E-03
-4.936800E-06,-2.125626430E-03
-4.930000E-06,-1.623113872E-03
-4.923200E-06,+1.894474030E-03
-4.916400E-06,+29.331659665E-03
-4.909600E-06,+60.437186970E-03
-4.902800E-06,+82.246231963E-03
-4.896000E-06,+72.849247139E-03
-4.889200E-06,+38.628141978E-03
-4.882400E-06,+25.412061717E-03
-4.875600E-06,+12.045227690E-03
-4.868800E-06,+7.572865929E-03
-4.862000E-06,+1.592966495E-03
-4.855200E-06,+989.951426E-06
-4.848400E-06,-1.321606338E-03
-4.841600E-06,-1.623113872E-03
-4.834800E-06,-2.125626430E-03
-4.828000E-06,-2.125626430E-03
-4.821200E-06,+7.170855883E-03
-4.814400E-06,+39.984925883E-03
-4.807600E-06,+70.035176817E-03
-4.800800E-06,+83.904523402E-03
-4.794000E-06,+67.221106496E-03
-4.787200E-06,+32.195981243E-03
-4.780400E-06,+23.804021534E-03
-4.773600E-06,+9.934674948E-03
-4.766800E-06,+6.718594581E-03
-4.760000E-06,+1.894474030E-03
-4.753200E-06,-517.586246E-06
-4.746400E-06,-1.321606338E-03
-4.739600E-06,-2.125626430E-03
-4.732800E-06,-2.125626430E-03
-4.726000E-06,-1.170852571E-03
-4.719200E-06,+18.427137169E-03
-4.712400E-06,+52.045227261E-03
-4.705600E-06,+80.989950569E-03
-4.698800E-06,+85.512563586E-03
-4.692000E-06,+60.386935715E-03
-4.685200E-06,+28.979900875E-03
-4.678400E-06,+20.135679864E-03
-4.671600E-06,+9.934674948E-03
-4.664800E-06,+5.110554397E-03
-4.658000E-06,+2.396986587E-03
-4.651200E-06,-517.586246E-06
-4.644400E-06,-1.321606338E-03
-4.637600E-06,-2.125626430E-03
-4.630800E-06,-2.125626430E-03
-4.624000E-06,+2.849247889E-03
-4.617200E-06,+29.834172223E-03
-4.610400E-06,+65.663317568E-03
-4.603600E-06,+90.638191672E-03
-4.596800E-06,+86.316583678E-03
-4.590000E-06,+53.603016189E-03
-4.583200E-06,+29.231157154E-03
-4.576400E-06,+17.572865821E-03
-4.569600E-06,+10.437187506E-03
-4.562800E-06,+3.552765469E-03
-4.556000E-06,+1.894474030E-03
-4.549200E-06,-1.422108850E-03
-4.542400E-06,-2.527636476E-03
-4.535600E-06,-2.577887732E-03
-4.528800E-06,-517.586246E-06
-4.522000E-06,+10.085428716E-03
-4.515200E-06,+44.959800201E-03
-4.508400E-06,+80.939699314E-03
-4.501600E-06,+99.180905148E-03
-4.494800E-06,+86.316583678E-03
-4.488000E-06,+48.778895638E-03
-4.481200E-06,+30.738694826E-03
-4.474400E-06,+15.964825638E-03
-4.467600E-06,+9.934674948E-03
-4.460800E-06,+3.502514213E-03
-4.454000E-06,+1.894474030E-03
-4.447200E-06,-1.321606338E-03
-4.440400E-06,-2.125626430E-03
-4.433600E-06,-1.924621407E-03
-4.426800E-06,-517.586246E-06
-4.420000E-06,+22.246232606E-03
-4.413200E-06,+60.236181947E-03
-4.406400E-06,+95.412060968E-03
-4.399600E-06,+104.809045792E-03
-4.392800E-06,+82.296483219E-03
-4.386000E-06,+43.603016296E-03
-4.379200E-06,+29.783920967E-03
-4.372400E-06,+13.954775408E-03
-4.365600E-06,+8.829147322E-03
-4.358800E-06,+1.944725285E-03
-4.352000E-06,+1.090453938E-03
-4.345200E-06,-1.321606338E-03
-4.338400E-06,-1.321606338E-03
-4.331600E-06,-2.125626430E-03
-4.324800E-06,+4.306534305E-03
-4.318000E-06,+36.266332958E-03
-4.311200E-06,+77.874372713E-03
-4.304400E-06,+107.020101044E-03
-4.297600E-06,+107.371859835E-03
-4.290800E-06,+76.718593831E-03
-4.284000E-06,+38.778895745E-03
-4.277200E-06,+27.522614459E-03
-4.270400E-06,+12.748745270E-03
-4.263600E-06,+7.221107138E-03
-4.256800E-06,+3.502514213E-03
-4.250000E-06,+638.192636E-06
-4.243200E-06,-1.321606338E-03
-4.236400E-06,-2.125626430E-03
-4.229600E-06,-1.773867640E-03
-4.222800E-06,+12.346735224E-03
-4.216000E-06,+51.994976006E-03
-4.209200E-06,+92.497488135E-03
-4.202400E-06,+116.668342147E-03
-4.195600E-06,+107.070352300E-03
-4.188800E-06,+67.874372820E-03
-4.182000E-06,+36.819096771E-03
-4.175200E-06,+24.155780324E-03
-4.168400E-06,+13.150755316E-03
-4.161600E-06,+6.115579512E-03
-4.154800E-06,+2.748745377E-03
-4.148000E-06,-517.586246E-06
-4.141200E-06,-1.422108850E-03
-4.134400E-06,-2.527636476E-03
-4.127600E-06,-969.847548E-06
-4.120800E-06,+25.160805439E-03
-4.114000E-06,+67.723619053E-03
-4.107200E-06,+106.668342254E-03
-4.100400E-06,+121.693467721E-03
-4.093600E-06,+101.140704122E-03
-4.086800E-06,+59.884423157E-03
-4.080000E-06,+36.467337981E-03
-4.073200E-06,+19.482413540E-03
-4.066400E-06,+12.346735224E-03
-4.059600E-06,+4.306534305E-03
-4.052800E-06,+2.698494121E-03
-4.046000E-06,-517.586246E-06
-4.039200E-06,-1.321606338E-03
-4.032400E-06,-1.472360105E-03
-4.025600E-06,+3.502514213E-03
-4.018800E-06,+38.025126909E-03
-4.012000E-06,+81.693468150E-03
-4.005200E-06,+116.316583357E-03
-3.998400E-06,+120.236181305E-03
-3.991600E-06,+91.492463020E-03
-3.984800E-06,+48.628141871E-03
-3.978000E-06,+33.502513892E-03
-3.971200E-06,+16.919599497E-03
-3.964400E-06,+10.939700063E-03
-3.957600E-06,+4.306534305E-03
-3.950800E-06,+1.090453938E-03
-3.944000E-06,-517.586246E-06
-3.937200E-06,-2.778892755E-03
-3.930400E-06,-1.472360105E-03
-3.923600E-06,+10.889448808E-03
-3.916800E-06,+50.889448379E-03
-3.910000E-06,+93.301508226E-03
-3.903200E-06,+120.989950141E-03
-3.896400E-06,+114.809045685E-03
-3.889600E-06,+77.824121458E-03
-3.882800E-06,+40.537689696E-03
-3.876000E-06,+27.422111947E-03
-3.869200E-06,+14.758795500E-03
-3.862400E-06,+7.120604627E-03
-3.855600E-06,+3.201006679E-03
-3.848800E-06,-467.334990E-06
-3.842000E-06,-819.093781E-06
-3.835200E-06,-2.929646522E-03
-3.828400E-06,-1.472360105E-03
-3.821600E-06,+19.733669818E-03
-3.814800E-06,+62.145729666E-03
-3.808000E-06,+101.693467936E-03
-3.801200E-06,+120.889447629E-03
-3.794400E-06,+104.356784490E-03
-3.787600E-06,+63.351759803E-03
-3.780800E-06,+37.271358073E-03
-3.774000E-06,+21.090453723E-03
-3.767200E-06,+12.648242759E-03
-3.760400E-06,+4.507539328E-03
-3.753600E-06,+2.396986587E-03
-3.746800E-06,-517.586246E-06
-3.740000E-06,-1.321606338E-03
-3.733200E-06,-2.125626430E-03
-3.726400E-06,+939.700170E-06
-3.719600E-06,+29.683418456E-03
-3.712800E-06,+70.939699421E-03
-3.706000E-06,+106.618090998E-03
-3.699200E-06,+114.959799452E-03
-3.692400E-06,+88.628141442E-03
-3.685600E-06,+48.125629313E-03
-3.678800E-06,+32.497488777E-03
-3.672000E-06,+15.914574382E-03
-3.665200E-06,+10.638192529E-03
-3.658400E-06,+3.351760446E-03
-3.651600E-06,+1.090453938E-03
-3.644800E-06,-1.321606338E-03
-3.638000E-06,-3.231154056E-03
-3.631200E-06,-2.125626430E-03
-3.624400E-06,+3.954775515E-03
-3.617600E-06,+38.226131932E-03
-3.610800E-06,+78.175880248E-03
-3.604000E-06,+106.869347277E-03
-3.597200E-06,+104.507538257E-03
-3.590400E-06,+70.939699421E-03
-3.583600E-06,+36.165830446E-03
-3.576800E-06,+25.211056694E-03
-3.570000E-06,+12.849247782E-03
-3.563200E-06,+6.618092069E-03
-3.556400E-06,+2.698494121E-03
-3.549600E-06,-15.073689E-06
-3.542800E-06,-1.321606338E-03
-3.536000E-06,-2.929646522E-03
-3.529200E-06,-2.778892755E-03
-3.522400E-06,+9.432162391E-03
-3.515600E-06,+46.266332851E-03
-3.508800E-06,+83.000000799E-03
-3.502000E-06,+103.201005608E-03
-3.495200E-06,+90.688442928E-03
-3.488400E-06,+53.301508655E-03
-3.481600E-06,+31.643217430E-03
-3.474800E-06,+17.221107031E-03
-3.468000E-06,+10.738695040E-03
-3.461200E-06,+3.402011702E-03
-3.454400E-06,+688.443892E-06
-3.447600E-06,-1.773867640E-03
-3.440800E-06,-2.125626430E-03
-3.434000E-06,-2.427133964E-03
-3.427200E-06,-1.974872663E-03
-3.420400E-06,+16.015076893E-03
-3.413600E-06,+53.000001120E-03
-3.406800E-06,+86.216081167E-03
-3.400000E-06,+96.266332315E-03
-3.393200E-06,+73.954774765E-03
-3.386400E-06,+37.673368119E-03
-3.379600E-06,+26.216081809E-03
-3.372800E-06,+11.592966388E-03
-3.366000E-06,+7.522614673E-03
-3.359200E-06,+1.894474030E-03
-3.352400E-06,+286.433846E-06
-3.345600E-06,-1.623113872E-03
-3.338800E-06,-2.929646522E-03
-3.332000E-06,-2.577887732E-03
-3.325200E-06,-366.832479E-06
-3.318400E-06,+22.447237629E-03
-3.311600E-06,+58.326634229E-03
-3.304800E-06,+86.266332422E-03
-3.298000E-06,+88.226131396E-03
-3.291200E-06,+57.773870416E-03
-3.284400E-06,+28.628142085E-03
-3.277600E-06,+19.281408517E-03
-3.270800E-06,+10.738695040E-03
-3.264000E-06,+4.658293095E-03
-3.257200E-06,+1.894474030E-03
-3.250400E-06,-668.340013E-06
-3.243600E-06,-1.321606338E-03
-3.236800E-06,-2.125626430E-03
-3.230000E-06,-2.427133964E-03
-3.223200E-06,+2.195981564E-03
-3.216400E-06,+31.140704872E-03
-3.209600E-06,+64.407036174E-03
-3.202800E-06,+85.462312330E-03
-3.196000E-06,+76.517588808E-03
-3.189200E-06,+43.150754995E-03
-3.182400E-06,+26.216081809E-03
-3.175600E-06,+13.653267873E-03
-3.168800E-06,+9.130654857E-03
-3.162000E-06,+1.894474030E-03
-3.155200E-06,+989.951426E-06
-3.148400E-06,-2.125626430E-03
-3.141600E-06,-2.427133964E-03
-3.134800E-06,-2.125626430E-03
-3.128000E-06,-2.125626430E-03
-3.121200E-06,+7.824122207E-03
-3.114400E-06,+39.180905791E-03
-3.107600E-06,+69.532664260E-03
-3.100800E-06,+83.100503311E-03
-3.094000E-06,+65.613066312E-03
-3.087200E-06,+32.195981243E-03
-3.080400E-06,+23.000001442E-03
-3.073600E-06,+9.633167414E-03
-3.066800E-06,+5.964825745E-03
-3.060000E-06,+1.894474030E-03
-3.053200E-06,-618.088758E-06
-3.046400E-06,-1.924621407E-03
-3.039600E-06,-2.577887732E-03
-3.032800E-06,-2.125626430E-03
-3.026000E-06,-1.623113872E-03
-3.019200E-06,+15.211056801E-03
-3.012400E-06,+48.025126802E-03
-3.005600E-06,+74.859297369E-03
-2.998800E-06,+80.688443035E-03
-2.992000E-06,+54.859297583E-03
-2.985200E-06,+25.914574275E-03
-2.978400E-06,+18.175880890E-03
-2.971600E-06,+8.829147322E-03
-2.964800E-06,+3.552765469E-03
-2.958000E-06,+1.090453938E-03
-2.951200E-06,-1.321606338E-03
-2.944400E-06,-1.924621407E-03
-2.937600E-06,-2.427133964E-03
-2.930800E-06,-2.125626430E-03
-2.924000E-06,+788.946403E-06
-2.917200E-06,+24.055277812E-03
-2.910400E-06,+57.673367904E-03
-2.903600E-06,+80.185930477E-03
-2.896800E-06,+75.864322484E-03
-2.890000E-06,+44.758795178E-03
-2.883200E-06,+25.211056694E-03
-2.876400E-06,+14.356785454E-03
-2.869600E-06,+8.829147322E-03
-2.862800E-06,+1.944725285E-03
-2.856000E-06,+1.090453938E-03
-2.849200E-06,-1.974872663E-03
-2.842400E-06,-2.125626430E-03
-2.835600E-06,-2.929646522E-03
-2.828800E-06,-2.125626430E-03
-2.822000E-06,+4.457288072E-03
-2.815200E-06,+35.311559099E-03
-2.808400E-06,+68.226131611E-03
-2.801600E-06,+83.904523402E-03
-2.794800E-06,+70.286433096E-03
-2.788000E-06,+36.718594260E-03
-2.781200E-06,+24.306534091E-03
-2.774400E-06,+10.939700063E-03
-2.767600E-06,+7.522614673E-03
-2.760800E-06,+1.894474030E-03
-2.754000E-06,+286.433846E-06
-2.747200E-06,-1.321606338E-03
-2.740400E-06,-2.276380197E-03
-2.733600E-06,-2.125626430E-03
-2.726800E-06,-2.125626430E-03
-2.720000E-06,+14.105529175E-03
-2.713200E-06,+48.175880569E-03
-2.706400E-06,+78.527639038E-03
-2.699600E-06,+87.572865072E-03
-2.692800E-06,+65.412061289E-03
-2.686000E-06,+30.738694826E-03
-2.679200E-06,+22.698493907E-03
-2.672400E-06,+10.587941273E-03
-2.665600E-06,+5.613066955E-03
-2.658800E-06,+1.894474030E-03
-2.652000E-06,-969.847548E-06
-2.645200E-06,-1.422108850E-03
-2.638400E-06,-2.728641499E-03
-2.631600E-06,-2.125626430E-03
-2.624800E-06,+1.090453938E-03
-2.618000E-06,+25.814071763E-03
-2.611200E-06,+61.844222131E-03
-2.604400E-06,+89.331659023E-03
-2.597600E-06,+89.683417813E-03
-2.590800E-06,+59.884423157E-03
-2.584000E-06,+29.231157154E-03
-2.577200E-06,+19.582916051E-03
-2.570400E-06,+10.738695040E-03
-2.563600E-06,+4.809046863E-03
-2.556800E-06,+1.894474030E-03
-2.550000E-06,-819.093781E-06
-2.543200E-06,-1.321606338E-03
-2.536400E-06,-2.125626430E-03
-2.529600E-06,-1.924621407E-03
-2.522800E-06,+6.718594581E-03
-2.516000E-06,+40.286433417E-03
-2.509200E-06,+77.070352621E-03
-2.502400E-06,+99.180905148E-03
-2.495600E-06,+89.381910278E-03
-2.488800E-06,+54.256282514E-03
-2.482000E-06,+31.190956128E-03
-2.475200E-06,+17.170855775E-03
-2.468400E-06,+10.738695040E-03
-2.461600E-06,+4.005026771E-03
-2.454800E-06,+1.894474030E-03
-2.448000E-06,-1.321606338E-03
-2.441200E-06,-1.321606338E-03
-2.434400E-06,-2.125626430E-03
-2.427600E-06,-1.321606338E-03
-2.420800E-06,+17.924624612E-03
-2.414000E-06,+56.015076465E-03
-2.407200E-06,+91.542714275E-03
-2.400400E-06,+107.371859835E-03
-2.393600E-06,+86.668342468E-03
-2.386800E-06,+47.824121779E-03
-2.380000E-06,+31.643217430E-03
-2.373200E-06,+15.462313080E-03
-2.366400E-06,+10.135679971E-03
-2.359600E-06,+3.201006679E-03
-2.352800E-06,+1.090453938E-03
-2.346000E-06,-1.321606338E-03
-2.339200E-06,-2.778892755E-03
-2.332400E-06,-2.276380197E-03
-2.325600E-06,+1.090453938E-03
-2.318800E-06,+31.592966174E-03
-2.312000E-06,+73.201005929E-03
-2.305200E-06,+105.211055838E-03
-2.298400E-06,+110.587940202E-03
-2.291600E-06,+82.648242009E-03
-2.284800E-06,+42.949749972E-03
-2.278000E-06,+29.582915944E-03
-2.271200E-06,+13.954775408E-03
-2.264400E-06,+8.728644811E-03
-2.257600E-06,+3.201006679E-03
-2.250800E-06,+286.433846E-06
-2.244000E-06,-1.321606338E-03
-2.237200E-06,-2.125626430E-03
-2.230400E-06,-2.125626430E-03
-2.223600E-06,+8.979901089E-03
-2.216800E-06,+47.673368012E-03
-2.210000E-06,+88.477387675E-03
-2.203200E-06,+116.065327078E-03
-2.196400E-06,+110.587940202E-03
-2.189600E-06,+74.608041090E-03
-2.182800E-06,+39.683418348E-03
-2.176000E-06,+26.366835576E-03
-2.169200E-06,+13.301509083E-03
-2.162400E-06,+6.919599604E-03
-2.155600E-06,+3.201006679E-03
-2.148800E-06,+286.433846E-06
-2.142000E-06,-517.586246E-06
-2.135200E-06,-1.422108850E-03
-2.128400E-06,-517.586246E-06
-2.121600E-06,+19.733669818E-03
-2.114800E-06,+62.145729666E-03
-2.108000E-06,+102.949749329E-03
-2.101200E-06,+121.793970233E-03
-2.094400E-06,+106.115578441E-03
-2.087600E-06,+64.959799987E-03
-2.080800E-06,+38.075378165E-03
-2.074000E-06,+22.698493907E-03
-2.067200E-06,+13.954775408E-03
-2.060400E-06,+6.115579512E-03
-2.053600E-06,+2.698494121E-03
-2.046800E-06,-517.586246E-06
-2.040000E-06,-1.773867640E-03
-2.033200E-06,-2.778892755E-03
-2.026400E-06,+1.542715239E-03
-2.019600E-06,+32.597991289E-03
-2.012800E-06,+76.567840064E-03
-2.006000E-06,+112.597990432E-03
-1.999200E-06,+122.346734046E-03
-1.992400E-06,+96.668342361E-03
-1.985600E-06,+54.055277491E-03
-1.978800E-06,+35.713569145E-03
-1.972000E-06,+17.874373356E-03
-1.965200E-06,+12.346735224E-03
-1.958400E-06,+4.306534305E-03
-1.951600E-06,+1.592966495E-03
-1.944800E-06,-1.321606338E-03
-1.938000E-06,-2.125626430E-03
-1.931200E-06,-1.974872663E-03
-1.924400E-06,+7.020102115E-03
-1.917600E-06,+44.959800201E-03
-1.910800E-06,+88.628141442E-03
-1.904000E-06,+118.929648655E-03
-1.897200E-06,+116.567839636E-03
-1.890400E-06,+83.954774658E-03
-1.883600E-06,+43.904523831E-03
-1.876800E-06,+30.889448593E-03
-1.870000E-06,+14.758795500E-03
-1.863200E-06,+9.683418670E-03
-1.856400E-06,+3.100504167E-03
-1.849600E-06,+286.433846E-06
-1.842800E-06,-517.586246E-06
-1.836000E-06,-2.929646522E-03
-1.829200E-06,-1.422108850E-03
-1.822400E-06,+15.060303034E-03
-1.815600E-06,+56.517589022E-03
-1.808800E-06,+97.472362453E-03
-1.802000E-06,+118.778894888E-03
-1.795200E-06,+106.919598533E-03
-1.788400E-06,+68.326634122E-03
-1.781600E-06,+37.773870630E-03
-1.774800E-06,+23.653267766E-03
-1.768000E-06,+13.954775408E-03
-1.761200E-06,+5.110554397E-03
-1.754400E-06,+3.351760446E-03
-1.747600E-06,-517.586246E-06
-1.740800E-06,-1.271355082E-03
-1.734000E-06,-2.427133964E-03
-1.727200E-06,-517.586246E-06
-1.720400E-06,+23.904524045E-03
-1.713600E-06,+66.316583892E-03
-1.706800E-06,+102.346734260E-03
-1.700000E-06,+115.562814521E-03
-1.693200E-06,+93.753769528E-03
-1.686400E-06,+51.844222238E-03
-1.679600E-06,+34.557790263E-03
-1.672800E-06,+16.417086939E-03
-1.666000E-06,+11.090453831E-03
-1.659200E-06,+3.502514213E-03
-1.652400E-06,+1.090453938E-03
-1.645600E-06,-1.321606338E-03
-1.638800E-06,-1.321606338E-03
-1.632000E-06,-2.577887732E-03
-1.625200E-06,+2.045227797E-03
-1.618400E-06,+32.547740033E-03
-1.611600E-06,+73.552764719E-03
-1.604800E-06,+103.954774444E-03
-1.598000E-06,+105.914573418E-03
-1.591200E-06,+76.216081274E-03
-1.584400E-06,+38.276383188E-03
-1.577600E-06,+26.216081809E-03
-1.570800E-06,+12.396986480E-03
-1.564000E-06,+7.070353371E-03
-1.557200E-06,+3.502514213E-03
-1.550400E-06,-316.581223E-06
-1.543600E-06,-1.321606338E-03
-1.536800E-06,-2.929646522E-03
-1.530000E-06,-2.125626430E-03
-1.523200E-06,+5.562815699E-03
-1.516400E-06,+40.788945975E-03
-1.509600E-06,+78.376885271E-03
-1.502800E-06,+101.542714168E-03
-1.496000E-06,+92.949749436E-03
-1.489200E-06,+56.969850324E-03
-1.482400E-06,+32.296483754E-03
-1.475600E-06,+18.979900982E-03
-1.468800E-06,+10.738695040E-03
-1.462000E-06,+4.005026771E-03
-1.455200E-06,+1.894474030E-03
-1.448400E-06,-1.321606338E-03
-1.441600E-06,-1.623113872E-03
-1.434800E-06,-2.879395266E-03
-1.428000E-06,-2.125626430E-03
-1.421200E-06,+11.994976434E-03
-1.414400E-06,+48.025126802E-03
-1.407600E-06,+81.291458104E-03
-1.400800E-06,+96.718593617E-03
-1.394000E-06,+78.025126480E-03
-1.387200E-06,+41.040202253E-03
-1.380400E-06,+28.025127016E-03
-1.373600E-06,+12.547740247E-03
-1.366800E-06,+9.130654857E-03
-1.360000E-06,+2.698494121E-03
-1.353200E-06,-517.586246E-06
-1.346400E-06,-1.472360105E-03
-1.339600E-06,-2.427133964E-03
-1.332800E-06,-2.929646522E-03
-1.326000E-06,-1.623113872E-03
-1.319200E-06,+18.427137169E-03
-1.312400E-06,+53.653267445E-03
-1.305600E-06,+83.703518379E-03
-1.298800E-06,+87.924623862E-03
-1.292000E-06,+63.201006036E-03
-1.285200E-06,+30.587941059E-03
-1.278400E-06,+20.939699956E-03
-1.271600E-06,+10.437187506E-03
-1.264800E-06,+5.914574489E-03
-1.258000E-06,+1.894474030E-03
-1.251200E-06,-517.586246E-06
-1.244400E-06,-1.924621407E-03
-1.237600E-06,-2.929646522E-03
-1.230800E-06,-2.125626430E-03
-1.224000E-06,+437.187613E-06
-1.217200E-06,+25.964825531E-03
-1.210400E-06,+59.884423157E-03
-1.203600E-06,+84.206030937E-03
-1.196800E-06,+79.884422943E-03
-1.190000E-06,+46.718594152E-03
-1.183200E-06,+26.819096878E-03
-1.176400E-06,+14.356785454E-03
-1.169600E-06,+9.331659880E-03
-1.162800E-06,+1.944725285E-03
-1.156000E-06,+1.090453938E-03
-1.149200E-06,-1.422108850E-03
-1.142400E-06,-1.924621407E-03
-1.135600E-06,-2.577887732E-03
-1.128800E-06,-2.125626430E-03
-1.122000E-06,+4.809046863E-03
-1.115200E-06,+34.507539007E-03
-1.108400E-06,+66.467337660E-03
-1.101600E-06,+83.100503311E-03
-1.094800E-06,+69.432161748E-03
-1.088000E-06,+35.110554076E-03
-1.081200E-06,+24.306534091E-03
-1.074400E-06,+10.135679971E-03
-1.067600E-06,+7.522614673E-03
-1.060800E-06,+1.894474030E-03
-1.054000E-06,-15.073689E-06
-1.047200E-06,-1.321606338E-03
-1.040400E-06,-2.125626430E-03
-1.033600E-06,-2.427133964E-03
-1.026800E-06,-2.125626430E-03
-1.020000E-06,+10.889448808E-03
-1.013200E-06,+44.155780110E-03
-1.006400E-06,+71.643217001E-03
-999.600E-09,+81.140704337E-03
-992.800E-09,+59.080403065E-03
-986.000E-09,+27.522614459E-03
-979.200E-09,+20.135679864E-03
-972.400E-09,+8.527639788E-03
-965.600E-09,+5.110554397E-03
-958.800E-09,+1.090453938E-03
-952.000E-09,-1.321606338E-03
-945.200E-09,-2.125626430E-03
-938.400E-09,-2.276380197E-03
-931.600E-09,-2.125626430E-03
-924.800E-09,-1.321606338E-03
-918.000E-09,+19.834172330E-03
-911.200E-09,+53.000001120E-03
-904.400E-09,+78.678392805E-03
-897.600E-09,+77.623116435E-03
-890.800E-09,+50.185930799E-03
-884.000E-09,+26.015076786E-03
-877.200E-09,+15.462313080E-03
-870.400E-09,+8.527639788E-03
-863.600E-09,+3.201006679E-03
-856.800E-09,+1.894474030E-03
-850.000E-09,-1.773867640E-03
-843.200E-09,-2.125626430E-03
-836.400E-09,-2.929646522E-03
-829.600E-09,-2.125626430E-03
-822.800E-09,+2.698494121E-03
-816.000E-09,+31.090453616E-03
-809.200E-09,+63.552764826E-03
-802.400E-09,+84.306533448E-03
-795.600E-09,+74.909548624E-03
-788.800E-09,+40.587940952E-03
-782.000E-09,+26.015076786E-03
-775.200E-09,+12.246232713E-03
-768.400E-09,+8.527639788E-03
-761.600E-09,+2.095479053E-03
-754.800E-09,+1.090453938E-03
-748.000E-09,-1.321606338E-03
-741.200E-09,-1.422108850E-03
-734.400E-09,-2.728641499E-03
-727.600E-09,-2.125626430E-03
-720.800E-09,+9.934674948E-03
-714.000E-09,+44.306533877E-03
-707.200E-09,+75.311558670E-03
-700.400E-09,+89.683417813E-03
-693.600E-09,+69.582915516E-03
-686.800E-09,+34.959800309E-03
-680.000E-09,+24.758795393E-03
-673.200E-09,+9.934674948E-03
-666.400E-09,+6.919599604E-03
-659.600E-09,+1.894474030E-03
-652.800E-09,+286.433846E-06
-646.000E-09,-1.321606338E-03
-639.200E-09,-2.125626430E-03
-632.400E-09,-2.125626430E-03
-625.600E-09,-819.093781E-06
-618.800E-09,+21.140704979E-03
-612.000E-09,+57.974875439E-03
-605.200E-09,+87.522613816E-03
-598.400E-09,+91.492463020E-03
-591.600E-09,+65.261307522E-03
-584.800E-09,+32.497488777E-03
-578.000E-09,+22.698493907E-03
-571.200E-09,+10.738695040E-03
-564.400E-09,+5.914574489E-03
-557.600E-09,+2.698494121E-03
-550.800E-09,-1.271355082E-03
-544.000E-09,-1.773867640E-03
-537.200E-09,-2.778892755E-03
-530.400E-09,-1.321606338E-03
-523.600E-09,+3.653267981E-03
-516.800E-09,+36.417086725E-03
-510.000E-09,+73.201005929E-03
-503.200E-09,+98.628141335E-03
-496.400E-09,+93.904523295E-03
-489.600E-09,+59.381910600E-03
-482.800E-09,+31.643217430E-03
-476.000E-09,+20.286433632E-03
-469.200E-09,+11.542715132E-03
-462.400E-09,+4.708544351E-03
-455.600E-09,+2.396986587E-03
-448.800E-09,-517.586246E-06
-442.000E-09,-1.321606338E-03
-435.200E-09,-2.125626430E-03
-428.400E-09,-1.472360105E-03
-421.600E-09,+13.301509083E-03
-414.800E-09,+50.889448379E-03
-408.000E-09,+88.477387675E-03
-401.200E-09,+107.221106067E-03
-394.400E-09,+92.296483112E-03
-387.600E-09,+53.753769957E-03
-380.800E-09,+33.251257613E-03
-374.000E-09,+18.326634658E-03
-367.200E-09,+11.442212621E-03
-360.400E-09,+4.306534305E-03
-353.600E-09,+1.894474030E-03
-346.800E-09,-1.321606338E-03
-340.000E-09,-1.321606338E-03
-333.200E-09,-2.125626430E-03
-326.400E-09,-316.581223E-06
-319.600E-09,+26.467338088E-03
-312.800E-09,+68.527639145E-03
-306.000E-09,+103.301508119E-03
-299.200E-09,+112.698492943E-03
-292.400E-09,+88.628141442E-03
-285.600E-09,+47.623116756E-03
-278.800E-09,+32.497488777E-03
-272.000E-09,+15.110554290E-03
-265.200E-09,+10.638192529E-03
-258.400E-09,+3.351760446E-03
-251.600E-09,+1.090453938E-03
-244.800E-09,-1.271355082E-03
-238.000E-09,-2.125626430E-03
-231.200E-09,-1.974872663E-03
-224.400E-09,+5.562815699E-03
-217.600E-09,+42.246232391E-03
-210.800E-09,+83.000000799E-03
-204.000E-09,+114.105528104E-03
-197.200E-09,+114.155779360E-03
-190.400E-09,+80.587940523E-03
-183.600E-09,+41.693468578E-03
-176.800E-09,+29.281408410E-03
-170.000E-09,+14.457287965E-03
-163.200E-09,+8.477388532E-03
-156.400E-09,+3.502514213E-03
-149.600E-09,+286.433846E-06
-142.800E-09,-517.586246E-06
-136.000E-09,-2.577887732E-03
-129.200E-09,-1.974872663E-03
-122.400E-09,+14.859298011E-03
-115.600E-09,+56.718594045E-03
-108.800E-09,+99.080402637E-03
-102.000E-09,+120.537688839E-03
-95.200E-09,+109.984925133E-03
-88.400E-09,+71.090453188E-03
-81.600E-09,+37.773870630E-03
-74.800E-09,+25.261307950E-03
-68.000E-09,+13.954775408E-03
-61.200E-09,+6.718594581E-03
-54.400E-09,+2.899499144E-03
-47.600E-09,-15.073689E-06
-40.800E-09,-1.321606338E-03
-34.000E-09,-2.125626430E-03
-27.200E-09,-366.832479E-06
-20.400E-09,+26.919599390E-03
-13.600E-09,+71.140704444E-03
-6.800E-09,+109.532663831E-03
-0.0E+00,+123.301507905E-03
+6.800E-09,+101.291457890E-03
+13.600E-09,+60.185930692E-03
+20.400E-09,+36.969850538E-03
+27.200E-09,+19.633167307E-03
+34.000E-09,+13.150755316E-03
+40.800E-09,+4.306534305E-03
+47.600E-09,+2.095479053E-03
+54.400E-09,-819.093781E-06
+61.200E-09,-2.075375174E-03
+68.000E-09,-2.427133964E-03
+74.800E-09,+4.457288072E-03
+81.600E-09,+38.979900768E-03
+88.400E-09,+82.396985730E-03
+95.200E-09,+116.015075822E-03
+102.000E-09,+119.130653678E-03
+108.800E-09,+88.778895210E-03
+115.600E-09,+47.321609221E-03
+122.400E-09,+32.145729987E-03
+129.200E-09,+16.417086939E-03
+136.000E-09,+9.934674948E-03
+142.800E-09,+2.849247889E-03
+149.600E-09,+487.438869E-06
+156.400E-09,-819.093781E-06
+163.200E-09,-2.125626430E-03
+170.000E-09,-2.125626430E-03
+176.800E-09,+10.386936250E-03
+183.600E-09,+50.085428287E-03
+190.400E-09,+92.045226833E-03
+197.200E-09,+117.623116006E-03
+204.000E-09,+110.638191458E-03
+210.800E-09,+73.000000906E-03
+217.600E-09,+38.477388211E-03
+224.400E-09,+26.216081809E-03
+231.200E-09,+13.954775408E-03
+238.000E-09,+7.070353371E-03
+244.800E-09,+2.698494121E-03
+251.600E-09,-316.581223E-06
+258.400E-09,-1.321606338E-03
+265.200E-09,-2.125626430E-03
+272.000E-09,-1.773867640E-03
+278.800E-09,+18.728644704E-03
+285.600E-09,+59.884423157E-03
+292.400E-09,+97.673367476E-03
+299.200E-09,+115.261306986E-03
+306.000E-09,+96.969849896E-03
+312.800E-09,+56.969850324E-03
+319.600E-09,+35.060302820E-03
+326.400E-09,+19.281408517E-03
+333.200E-09,+11.592966388E-03
+340.000E-09,+4.306534305E-03
+346.800E-09,+2.447237843E-03
+353.600E-09,-1.924621407E-03
+360.400E-09,-2.125626430E-03
+367.200E-09,-2.125626430E-03
+374.000E-09,+286.433846E-06
+380.800E-09,+27.422111947E-03
+387.600E-09,+67.271357751E-03
+394.400E-09,+100.587940309E-03
+401.200E-09,+107.221106067E-03
+408.000E-09,+80.085427966E-03
+414.800E-09,+41.190956021E-03
+421.600E-09,+29.231157154E-03
+428.400E-09,+13.653267873E-03
+435.200E-09,+8.376886020E-03
+442.000E-09,+2.698494121E-03
+448.800E-09,+185.931334E-06
+455.600E-09,-1.321606338E-03
+462.400E-09,-2.427133964E-03
+469.200E-09,-2.125626430E-03
+476.000E-09,+3.653267981E-03
+482.800E-09,+35.311559099E-03
+489.600E-09,+72.246232070E-03
+496.400E-09,+99.482412683E-03
+503.200E-09,+95.964824781E-03
+510.000E-09,+61.994975898E-03
+516.800E-09,+31.643217430E-03
+523.600E-09,+20.788946189E-03
+530.400E-09,+11.391961365E-03
+537.200E-09,+5.160805653E-03
+544.000E-09,+1.894474030E-03
+550.800E-09,-1.321606338E-03
+557.600E-09,-1.924621407E-03
+564.400E-09,-2.929646522E-03
+571.200E-09,-2.125626430E-03
+578.000E-09,+8.125629742E-03
+584.800E-09,+41.894473601E-03
+591.600E-09,+76.919598854E-03
+598.400E-09,+95.613065991E-03
+605.200E-09,+80.738694291E-03
+612.000E-09,+45.562815270E-03
+618.800E-09,+28.979900875E-03
+625.600E-09,+13.954775408E-03
+632.400E-09,+9.633167414E-03
+639.200E-09,+2.698494121E-03
+646.000E-09,+1.090453938E-03
+652.800E-09,-1.321606338E-03
+659.600E-09,-2.125626430E-03
+666.400E-09,-2.125626430E-03
+673.200E-09,-2.125626430E-03
+680.000E-09,+13.753770385E-03
+686.800E-09,+49.130654428E-03
+693.600E-09,+79.482412897E-03
+700.400E-09,+89.532664046E-03
+707.200E-09,+67.070352728E-03
+714.000E-09,+31.542714918E-03
+720.800E-09,+23.351760232E-03
+727.600E-09,+9.934674948E-03
+734.400E-09,+6.115579512E-03
+741.200E-09,+1.894474030E-03
+748.000E-09,+286.433846E-06
+754.800E-09,-1.422108850E-03
+761.600E-09,-3.532661591E-03
+768.400E-09,-2.577887732E-03
+775.200E-09,-517.586246E-06
+782.000E-09,+21.341710002E-03
+788.800E-09,+56.216081488E-03
+795.600E-09,+81.291458104E-03
+802.400E-09,+81.643216894E-03
+809.200E-09,+51.844222238E-03
+816.000E-09,+27.170855668E-03
+822.800E-09,+16.919599497E-03
+829.600E-09,+9.331659880E-03
+836.400E-09,+3.201006679E-03
+843.200E-09,+1.894474030E-03
+850.000E-09,-1.623113872E-03
+856.800E-09,-1.422108850E-03
+863.600E-09,-2.929646522E-03
+870.400E-09,-2.427133964E-03
+877.200E-09,+1.894474030E-03
+884.000E-09,+29.834172223E-03
+890.800E-09,+62.648242223E-03
+897.600E-09,+80.839196802E-03
+904.400E-09,+72.798995883E-03
+911.200E-09,+38.979900768E-03
+918.000E-09,+25.562815485E-03
+924.800E-09,+12.095478945E-03
+931.600E-09,+7.522614673E-03
+938.400E-09,+1.894474030E-03
+945.200E-09,+1.090453938E-03
+952.000E-09,-2.125626430E-03
+958.800E-09,-2.778892755E-03
+965.600E-09,-2.276380197E-03
+972.400E-09,-2.125626430E-03
+979.200E-09,+7.522614673E-03
+986.000E-09,+39.482413325E-03
+992.800E-09,+69.532664260E-03
+999.600E-09,+82.296483219E-03
+1.006400E-06,+63.653267338E-03
+1.013200E-06,+29.281408410E-03
+1.020000E-06,+21.894473815E-03
+1.026800E-06,+9.130654857E-03
+1.033600E-06,+4.708544351E-03
+1.040400E-06,+1.090453938E-03
+1.047200E-06,-517.586246E-06
+1.054000E-06,-1.623113872E-03
+1.060800E-06,-2.226128941E-03
+1.067600E-06,-2.728641499E-03
+1.074400E-06,-969.847548E-06
+1.081200E-06,+15.562815592E-03
+1.088000E-06,+49.482413218E-03
+1.094800E-06,+76.768845087E-03
+1.101600E-06,+80.035176710E-03
+1.108400E-06,+54.859297583E-03
+1.115200E-06,+26.065328042E-03
+1.122000E-06,+18.326634658E-03
+1.128800E-06,+9.130654857E-03
+1.135600E-06,+3.703519236E-03
+1.142400E-06,+1.090453938E-03
+1.149200E-06,-1.321606338E-03
+1.156000E-06,-2.125626430E-03
+1.162800E-06,-2.778892755E-03
+1.169600E-06,-2.527636476E-03
+1.176400E-06,+638.192636E-06
+1.183200E-06,+26.768845622E-03
+1.190000E-06,+60.386935715E-03
+1.196800E-06,+83.100503311E-03
+1.203600E-06,+78.427136526E-03
+1.210400E-06,+46.015076572E-03
+1.217200E-06,+27.623116970E-03
+1.224000E-06,+14.306534198E-03
+1.230800E-06,+9.130654857E-03
+1.237600E-06,+2.547740354E-03
+1.244400E-06,+788.946403E-06
+1.251200E-06,-2.075375174E-03
+1.258000E-06,-2.125626430E-03
+1.264800E-06,-2.125626430E-03
+1.271600E-06,-2.125626430E-03
+1.278400E-06,+7.371860906E-03
+1.285200E-06,+39.633167093E-03
+1.292000E-06,+73.201005929E-03
+1.298800E-06,+89.633166557E-03
+1.305600E-06,+74.758794857E-03
+1.312400E-06,+39.080403280E-03
+1.319200E-06,+26.065328042E-03
+1.326000E-06,+12.698494014E-03
+1.332800E-06,+7.673368440E-03
+1.339600E-06,+1.894474030E-03
+1.346400E-06,+788.946403E-06
+1.353200E-06,-1.321606338E-03
+1.360000E-06,-2.125626430E-03
+1.366800E-06,-2.929646522E-03
+1.373600E-06,-668.340013E-06
+1.380400E-06,+17.321609543E-03
+1.387200E-06,+54.105528747E-03
+1.394000E-06,+85.261307308E-03
+1.400800E-06,+93.552764505E-03
+1.407600E-06,+70.738694398E-03
+1.414400E-06,+34.256282728E-03
+1.421200E-06,+25.261307950E-03
+1.428000E-06,+11.090453831E-03
+1.434800E-06,+6.718594581E-03
+1.441600E-06,+2.547740354E-03
+1.448400E-06,-165.827456E-06
+1.455200E-06,-1.321606338E-03
+1.462000E-06,-2.125626430E-03
+1.468800E-06,-1.422108850E-03
+1.475600E-06,+1.542715239E-03
+1.482400E-06,+31.793971197E-03
+1.489200E-06,+69.331659237E-03
+1.496000E-06,+97.673367476E-03
+1.502800E-06,+96.618091105E-03
+1.509600E-06,+65.311558777E-03
+1.516400E-06,+32.949750079E-03
+1.523200E-06,+22.045227583E-03
+1.530000E-06,+11.241207598E-03
+1.536800E-06,+6.618092069E-03
+1.543600E-06,+1.894474030E-03
+1.550400E-06,-819.093781E-06
+1.557200E-06,-1.321606338E-03
+1.564000E-06,-2.125626430E-03
+1.570800E-06,-1.321606338E-03
+1.577600E-06,+9.582916158E-03
+1.584400E-06,+46.869347920E-03
+1.591200E-06,+85.412061075E-03
+1.598000E-06,+107.673367369E-03
+1.604800E-06,+97.120603663E-03
+1.611600E-06,+59.733669390E-03
+1.618400E-06,+33.603016404E-03
+1.625200E-06,+20.437187399E-03
+1.632000E-06,+11.894473922E-03
+1.638800E-06,+4.306534305E-03
+1.645600E-06,+2.547740354E-03
+1.652400E-06,-517.586246E-06
+1.659200E-06,-1.321606338E-03
+1.666000E-06,-2.929646522E-03
+1.672800E-06,-1.170852571E-03
+1.679600E-06,+22.296483861E-03
+1.686400E-06,+63.100503525E-03
+1.693200E-06,+99.130653893E-03
+1.700000E-06,+113.954774337E-03
+1.706800E-06,+93.100503203E-03
+1.713600E-06,+52.497488563E-03
+1.720400E-06,+33.251257613E-03
+1.727200E-06,+17.221107031E-03
+1.734000E-06,+11.090453831E-03
+1.740800E-06,+3.402011702E-03
+1.747600E-06,+1.894474030E-03
+1.754400E-06,-969.847548E-06
+1.761200E-06,-2.125626430E-03
+1.768000E-06,-2.125626430E-03
+1.774800E-06,+2.346735331E-03
+1.781600E-06,+36.567840492E-03
+1.788400E-06,+78.678392805E-03
+1.795200E-06,+112.798995455E-03
+1.802000E-06,+116.065327078E-03
+1.808800E-06,+87.321608793E-03
+1.815600E-06,+46.517589130E-03
+1.822400E-06,+31.844222452E-03
+1.829200E-06,+15.613066847E-03
+1.836000E-06,+10.738695040E-03
+1.842800E-06,+3.502514213E-03
+1.849600E-06,+487.438869E-06
+1.856400E-06,-517.586246E-06
+1.863200E-06,-1.321606338E-03
+1.870000E-06,-2.125626430E-03
+1.876800E-06,+11.040202575E-03
+1.883600E-06,+51.844222238E-03
+1.890400E-06,+93.653267017E-03
+1.897200E-06,+120.839196374E-03
+1.904000E-06,+113.502513035E-03
+1.910800E-06,+76.869347598E-03
+1.917600E-06,+40.085428394E-03
+1.924400E-06,+27.522614459E-03
+1.931200E-06,+14.758795500E-03
+1.938000E-06,+7.874373463E-03
+1.944800E-06,+2.849247889E-03
+1.951600E-06,+286.433846E-06
+1.958400E-06,-819.093781E-06
+1.965200E-06,-2.879395266E-03
+1.972000E-06,-1.321606338E-03
+1.978800E-06,+22.296483861E-03
+1.985600E-06,+65.462312545E-03
+1.992400E-06,+105.211055838E-03
+1.999200E-06,+123.301507905E-03
+2.006000E-06,+106.618090998E-03
+2.012800E-06,+64.809046220E-03
+2.019600E-06,+38.276383188E-03
+2.026400E-06,+22.195981350E-03
+2.033200E-06,+13.201006572E-03
+2.040000E-06,+5.462313187E-03
+2.046800E-06,+2.698494121E-03
+2.053600E-06,-517.586246E-06
+2.060400E-06,-1.321606338E-03
+2.067200E-06,-2.125626430E-03
+2.074000E-06,+1.693469007E-03
+2.080800E-06,+33.854272682E-03
+2.087600E-06,+77.522613923E-03
+2.094400E-06,+113.150754245E-03
+2.101200E-06,+120.085427538E-03
+2.108000E-06,+94.105528318E-03
+2.114800E-06,+51.994976006E-03
+2.121600E-06,+33.804021426E-03
+2.128400E-06,+16.869348241E-03
+2.135200E-06,+11.592966388E-03
+2.142000E-06,+3.854273004E-03
+2.148800E-06,+2.597991610E-03
+2.155600E-06,-668.340013E-06
+2.162400E-06,-2.125626430E-03
+2.169200E-06,-2.125626430E-03
+2.176000E-06,+6.517589558E-03
+2.182800E-06,+44.306533877E-03
+2.189600E-06,+87.170855026E-03
+2.196400E-06,+115.562814521E-03
+2.203200E-06,+113.653266802E-03
+2.210000E-06,+78.477387782E-03
+2.216800E-06,+40.386935929E-03
+2.223600E-06,+28.829147108E-03
+2.230400E-06,+13.954775408E-03
+2.237200E-06,+7.572865929E-03
+2.244000E-06,+3.502514213E-03
+2.250800E-06,-366.832479E-06
+2.257600E-06,-1.321606338E-03
+2.264400E-06,-2.577887732E-03
+2.271200E-06,-1.321606338E-03
+2.278000E-06,+14.105529175E-03
+2.284800E-06,+53.954774980E-03
+2.291600E-06,+93.603015761E-03
+2.298400E-06,+113.954774337E-03
+2.305200E-06,+100.035176496E-03
+2.312000E-06,+61.190955807E-03
+2.318800E-06,+35.663317889E-03
+2.325600E-06,+20.587941166E-03
+2.332400E-06,+12.045227690E-03
+2.339200E-06,+5.110554397E-03
+2.346000E-06,+1.894474030E-03
+2.352800E-06,-517.586246E-06
+2.359600E-06,-1.924621407E-03
+2.366400E-06,-2.929646522E-03
+2.373200E-06,-517.586246E-06
+2.380000E-06,+21.793971304E-03
+2.386800E-06,+61.994975898E-03
+2.393600E-06,+96.366834827E-03
+2.400400E-06,+106.869347277E-03
+2.407200E-06,+84.758794750E-03
+2.414000E-06,+45.110553969E-03
+2.420800E-06,+29.934674734E-03
+2.427600E-06,+14.155780431E-03
+2.434400E-06,+9.130654857E-03
+2.441200E-06,+3.502514213E-03
+2.448000E-06,+788.946403E-06
+2.454800E-06,-1.974872663E-03
+2.461600E-06,-2.728641499E-03
+2.468400E-06,-2.125626430E-03
+2.475200E-06,+1.894474030E-03
+2.482000E-06,+29.180905898E-03
+2.488800E-06,+67.572865286E-03
+2.495600E-06,+96.366834827E-03
+2.502400E-06,+96.768844873E-03
+2.509200E-06,+67.070352728E-03
+2.516000E-06,+33.150755102E-03
+2.522800E-06,+22.698493907E-03
+2.529600E-06,+11.391961365E-03
+2.536400E-06,+5.914574489E-03
+2.543200E-06,+1.894474030E-03
+2.550000E-06,-969.847548E-06
+2.556800E-06,-1.974872663E-03
+2.563600E-06,-2.929646522E-03
+2.570400E-06,-2.125626430E-03
+2.577200E-06,+5.110554397E-03
+2.584000E-06,+37.070353050E-03
+2.590800E-06,+72.396985837E-03
+2.597600E-06,+93.954774551E-03
+2.604400E-06,+84.557789727E-03
+2.611200E-06,+48.628141871E-03
+2.618000E-06,+29.582915944E-03
+2.624800E-06,+16.115579405E-03
+2.631600E-06,+10.135679971E-03
+2.638400E-06,+3.201006679E-03
+2.645200E-06,+1.090453938E-03
+2.652000E-06,-1.623113872E-03
+2.658800E-06,-2.125626430E-03
+2.665600E-06,-2.728641499E-03
+2.672400E-06,-2.125626430E-03
+2.679200E-06,+10.688443785E-03
+2.686000E-06,+44.306533877E-03
+2.692800E-06,+76.919598854E-03
+2.699600E-06,+88.728643954E-03
+2.706400E-06,+70.386935608E-03
+2.713200E-06,+34.959800309E-03
+2.720000E-06,+24.758795393E-03
+2.726800E-06,+10.638192529E-03
+2.733600E-06,+6.919599604E-03
+2.740400E-06,+1.894474030E-03
+2.747200E-06,-467.334990E-06
+2.754000E-06,-1.623113872E-03
+2.760800E-06,-2.125626430E-03
+2.767600E-06,-2.125626430E-03
+2.774400E-06,-1.321606338E-03
+2.781200E-06,+17.924624612E-03
+2.788000E-06,+50.738694612E-03
+2.794800E-06,+79.331659130E-03
+2.801600E-06,+81.844221917E-03
+2.808400E-06,+56.165830232E-03
+2.815200E-06,+27.673368226E-03
+2.822000E-06,+18.326634658E-03
+2.828800E-06,+9.130654857E-03
+2.835600E-06,+3.703519236E-03
+2.842400E-06,+1.592966495E-03
+2.849200E-06,-1.321606338E-03
+2.856000E-06,-2.226128941E-03
+2.862800E-06,-2.778892755E-03
+2.869600E-06,-2.125626430E-03
+2.876400E-06,+638.192636E-06
+2.883200E-06,+25.160805439E-03
+2.890000E-06,+57.974875439E-03
+2.896800E-06,+80.788945546E-03
+2.903600E-06,+75.412061182E-03
+2.910400E-06,+43.301508762E-03
+2.917200E-06,+26.015076786E-03
+2.924000E-06,+13.150755316E-03
+2.930800E-06,+8.226132253E-03
+2.937600E-06,+1.291458961E-03
+2.944400E-06,+1.090453938E-03
+2.951200E-06,-1.321606338E-03
+2.958000E-06,-2.125626430E-03
+2.964800E-06,-2.929646522E-03
+2.971600E-06,-2.276380197E-03
+2.978400E-06,+5.261308164E-03
+2.985200E-06,+34.809046541E-03
+2.992000E-06,+65.160805010E-03
+2.998800E-06,+82.145729451E-03
+3.005600E-06,+67.170855240E-03
+3.012400E-06,+33.452262636E-03
+3.019200E-06,+23.603016511E-03
+3.026000E-06,+9.934674948E-03
+3.032800E-06,+6.618092069E-03
+3.039600E-06,+1.291458961E-03
+3.046400E-06,-517.586246E-06
+3.053200E-06,-2.125626430E-03
+3.060000E-06,-2.125626430E-03
+3.066800E-06,-2.125626430E-03
+3.073600E-06,-2.125626430E-03
+3.080400E-06,+12.195981457E-03
+3.087200E-06,+45.261307736E-03
+3.094000E-06,+74.809046113E-03
+3.100800E-06,+82.145729451E-03
+3.107600E-06,+58.728644275E-03
+3.114400E-06,+27.824121993E-03
+3.121200E-06,+20.437187399E-03
+3.128000E-06,+8.326634765E-03
+3.134800E-06,+4.306534305E-03
+3.141600E-06,+1.743720262E-03
+3.148400E-06,-819.093781E-06
+3.155200E-06,-2.125626430E-03
+3.162000E-06,-3.231154056E-03
+3.168800E-06,-2.778892755E-03
+3.175600E-06,-668.340013E-06
+3.182400E-06,+22.145730094E-03
+3.189200E-06,+56.517589022E-03
+3.196000E-06,+81.944724428E-03
+3.202800E-06,+81.190955592E-03
+3.209600E-06,+51.040202146E-03
+3.216400E-06,+27.170855668E-03
+3.223200E-06,+16.417086939E-03
+3.230000E-06,+9.130654857E-03
+3.236800E-06,+3.402011702E-03
+3.243600E-06,+1.291458961E-03
+3.250400E-06,-1.321606338E-03
+3.257200E-06,-1.321606338E-03
+3.264000E-06,-2.929646522E-03
+3.270800E-06,-2.778892755E-03
+3.277600E-06,+4.758795607E-03
+3.284400E-06,+35.010051564E-03
+3.291200E-06,+69.331659237E-03
+3.298000E-06,+89.532664046E-03
+3.304800E-06,+78.778895317E-03
+3.311600E-06,+44.457287644E-03
+3.318400E-06,+28.125629527E-03
+3.325200E-06,+13.201006572E-03
+3.332000E-06,+9.482413647E-03
+3.338800E-06,+1.894474030E-03
+3.345600E-06,+487.438869E-06
+3.352400E-06,-1.472360105E-03
+3.359200E-06,-2.125626430E-03
+3.366000E-06,-2.577887732E-03
+3.372800E-06,-1.974872663E-03
+3.379600E-06,+14.256282942E-03
+3.386400E-06,+49.783920753E-03
+3.393200E-06,+83.804020891E-03
+3.400000E-06,+95.462312223E-03
+3.406800E-06,+75.562814949E-03
+3.413600E-06,+39.432162070E-03
+3.420400E-06,+27.020101901E-03
+3.427200E-06,+12.346735224E-03
+3.434000E-06,+7.874373463E-03
+3.440800E-06,+1.894474030E-03
+3.447600E-06,+286.433846E-06
+3.454400E-06,-1.623113872E-03
+3.461200E-06,-2.125626430E-03
+3.468000E-06,-2.125626430E-03
+3.474800E-06,+437.187613E-06
+3.481600E-06,+26.316584321E-03
+3.488400E-06,+65.010051243E-03
+3.495200E-06,+95.914573525E-03
+3.502000E-06,+99.834171473E-03
+3.508800E-06,+71.241206955E-03
+3.515600E-06,+36.065327935E-03
+3.522400E-06,+25.412061717E-03
+3.529200E-06,+11.542715132E-03
+3.536000E-06,+7.070353371E-03
+3.542800E-06,+2.849247889E-03
+3.549600E-06,+286.433846E-06
+3.556400E-06,-1.321606338E-03
+3.563200E-06,-2.075375174E-03
+3.570000E-06,-1.623113872E-03
+3.576800E-06,+7.020102115E-03
+3.583600E-06,+42.396986159E-03
+3.590400E-06,+82.396985730E-03
+3.597200E-06,+107.170854812E-03
+3.604000E-06,+100.989950355E-03
+3.610800E-06,+65.763820079E-03
+3.617600E-06,+34.256282728E-03
+3.624400E-06,+22.497488884E-03
+3.631200E-06,+12.346735224E-03
+3.638000E-06,+5.462313187E-03
+3.644800E-06,+2.698494121E-03
+3.651600E-06,-517.586246E-06
+3.658400E-06,-1.623113872E-03
+3.665200E-06,-2.125626430E-03
+3.672000E-06,-1.623113872E-03
+3.678800E-06,+17.773870844E-03
+3.685600E-06,+58.929649298E-03
+3.692400E-06,+96.869347384E-03
+3.699200E-06,+115.211055730E-03
+3.706000E-06,+98.226131289E-03
+3.712800E-06,+58.427136741E-03
+3.719600E-06,+35.663317889E-03
+3.726400E-06,+19.783921074E-03
+3.733200E-06,+12.346735224E-03
+3.740000E-06,+4.658293095E-03
+3.746800E-06,+2.698494121E-03
+3.753600E-06,-1.723616384E-03
+3.760400E-06,-2.125626430E-03
+3.767200E-06,-2.125626430E-03
+3.774000E-06,+1.090453938E-03
+3.780800E-06,+31.442212407E-03
+3.787600E-06,+74.306533556E-03
+3.794400E-06,+109.432161320E-03
+3.801200E-06,+118.477387354E-03
+3.808000E-06,+92.497488135E-03
+3.814800E-06,+51.341709681E-03
+3.821600E-06,+33.653267659E-03
+3.828400E-06,+16.869348241E-03
+3.835200E-06,+10.788946296E-03
+3.842000E-06,+3.502514213E-03
+3.848800E-06,+1.090453938E-03
+3.855600E-06,-1.321606338E-03
+3.862400E-06,-1.924621407E-03
+3.869200E-06,-1.321606338E-03
+3.876000E-06,+7.321609650E-03
+3.882800E-06,+45.110553969E-03
+3.889600E-06,+89.783920324E-03
+3.896400E-06,+117.974874796E-03
+3.903200E-06,+116.869347170E-03
+3.910000E-06,+82.849247032E-03
+3.916800E-06,+42.497488670E-03
+3.923600E-06,+30.236182269E-03
+3.930400E-06,+14.758795500E-03
+3.937200E-06,+9.130654857E-03
+3.944000E-06,+3.502514213E-03
+3.950800E-06,+989.951426E-06
+3.957600E-06,-517.586246E-06
+3.964400E-06,-2.125626430E-03
+3.971200E-06,-2.125626430E-03
+3.978000E-06,+17.773870844E-03
+3.984800E-06,+59.733669390E-03
+3.991600E-06,+101.040201611E-03
+3.998400E-06,+122.798995348E-03
+4.005200E-06,+109.683417599E-03
+4.012000E-06,+70.788945653E-03
+4.018800E-06,+37.974875653E-03
+4.025600E-06,+24.809046648E-03
+4.032400E-06,+13.954775408E-03
+4.039200E-06,+5.964825745E-03
+4.046000E-06,+3.502514213E-03
+4.052800E-06,-517.586246E-06
+4.059600E-06,-1.321606338E-03
+4.066400E-06,-2.125626430E-03
+4.073200E-06,+1.090453938E-03
+4.080000E-06,+27.874373249E-03
+4.086800E-06,+70.939699421E-03
+4.093600E-06,+109.231156297E-03
+4.100400E-06,+121.190955164E-03
+4.107200E-06,+98.427136312E-03
+4.114000E-06,+56.819096557E-03
+4.120800E-06,+35.562815377E-03
+4.127600E-06,+18.376885913E-03
+4.134400E-06,+12.346735224E-03
+4.141200E-06,+4.306534305E-03
+4.148000E-06,+1.894474030E-03
+4.154800E-06,-1.321606338E-03
+4.161600E-06,-3.331656568E-03
+4.168400E-06,-2.276380197E-03
+4.175200E-06,+4.306534305E-03
+4.182000E-06,+38.326634443E-03
+4.188800E-06,+81.391960615E-03
+4.195600E-06,+113.251256756E-03
+4.202400E-06,+114.909548196E-03
+4.209200E-06,+83.150754566E-03
+4.216000E-06,+43.502513785E-03
+4.222800E-06,+30.587941059E-03
+4.229600E-06,+14.155780431E-03
+4.236400E-06,+8.829147322E-03
+4.243200E-06,+2.748745377E-03
+4.250000E-06,+286.433846E-06
+4.256800E-06,-618.088758E-06
+4.263600E-06,-2.276380197E-03
+4.270400E-06,-2.125626430E-03
+4.277200E-06,+10.688443785E-03
+4.284000E-06,+47.974875546E-03
+4.290800E-06,+87.673367583E-03
+4.297600E-06,+111.844221596E-03
+4.304400E-06,+102.045226726E-03
+4.311200E-06,+65.462312545E-03
+4.318000E-06,+35.663317889E-03
+4.324800E-06,+22.547740140E-03
+4.331600E-06,+12.547740247E-03
+4.338400E-06,+5.613066955E-03
+4.345200E-06,+1.944725285E-03
+4.352000E-06,-1.321606338E-03
+4.358800E-06,-2.125626430E-03
+4.365600E-06,-2.929646522E-03
+4.372400E-06,-969.847548E-06
+4.379200E-06,+17.120604520E-03
+4.386000E-06,+56.366835255E-03
+4.392800E-06,+91.693468043E-03
+4.399600E-06,+107.221106067E-03
+4.406400E-06,+87.773870095E-03
+4.413200E-06,+48.628141871E-03
+4.420000E-06,+31.643217430E-03
+4.426800E-06,+14.658292988E-03
+4.433600E-06,+9.934674948E-03
+4.440400E-06,+3.201006679E-03
+4.447200E-06,+1.090453938E-03
+4.454000E-06,-1.623113872E-03
+4.460800E-06,-2.929646522E-03
+4.467600E-06,-2.728641499E-03
+4.474400E-06,-517.586246E-06
+4.481200E-06,+24.356785347E-03
+4.488000E-06,+62.949749758E-03
+4.494800E-06,+93.000000692E-03
+4.501600E-06,+99.180905148E-03
+4.508400E-06,+70.587940631E-03
+4.515200E-06,+34.909549053E-03
+4.522000E-06,+24.407036602E-03
+4.528800E-06,+11.542715132E-03
+4.535600E-06,+6.115579512E-03
+4.542400E-06,+2.698494121E-03
+4.549200E-06,-467.334990E-06
+4.556000E-06,-1.623113872E-03
+4.562800E-06,-2.226128941E-03
+4.569600E-06,-2.728641499E-03
+4.576400E-06,+2.547740354E-03
+4.583200E-06,+32.396986266E-03
+4.590000E-06,+67.572865286E-03
+4.596800E-06,+91.391960508E-03
+4.603600E-06,+86.015076144E-03
+4.610400E-06,+54.055277491E-03
+4.617200E-06,+29.231157154E-03
+4.624000E-06,+16.718594474E-03
+4.630800E-06,+10.638192529E-03
+4.637600E-06,+3.502514213E-03
+4.644400E-06,+1.592966495E-03
+4.651200E-06,-2.075375174E-03
+4.658000E-06,-1.623113872E-03
+4.664800E-06,-2.778892755E-03
+4.671600E-06,-1.924621407E-03
+4.678400E-06,+7.070353371E-03
+4.685200E-06,+39.633167093E-03
+4.692000E-06,+71.944724536E-03
+4.698800E-06,+89.532664046E-03
+4.705600E-06,+73.954774765E-03
+4.712400E-06,+37.974875653E-03
+4.719200E-06,+26.065328042E-03
+4.726000E-06,+11.894473922E-03
+4.732800E-06,+8.226132253E-03
+4.739600E-06,+1.291458961E-03
+4.746400E-06,+788.946403E-06
+4.753200E-06,-1.321606338E-03
+4.760000E-06,-2.577887732E-03
+4.766800E-06,-2.778892755E-03
+4.773600E-06,-1.472360105E-03
+4.780400E-06,+13.000001549E-03
+4.787200E-06,+46.065327828E-03
+4.794000E-06,+75.512563693E-03
+4.800800E-06,+83.753769635E-03
+4.807600E-06,+59.733669390E-03
+4.814400E-06,+28.628142085E-03
+4.821200E-06,+20.437187399E-03
+4.828000E-06,+9.130654857E-03
+4.834800E-06,+5.010051886E-03
+4.841600E-06,+1.291458961E-03
+4.848400E-06,-1.321606338E-03
+4.855200E-06,-1.321606338E-03
+4.862000E-06,-2.577887732E-03
+4.868800E-06,-2.929646522E-03
+4.875600E-06,-668.340013E-06
+4.882400E-06,+21.040202468E-03
+4.889200E-06,+54.909548839E-03
+4.896000E-06,+78.376885271E-03
+4.902800E-06,+76.517588808E-03
+4.909600E-06,+47.673368012E-03
+4.916400E-06,+25.562815485E-03
+4.923200E-06,+15.613066847E-03
+4.930000E-06,+8.326634765E-03
+4.936800E-06,+2.597991610E-03
+4.943600E-06,+688.443892E-06
+4.950400E-06,-1.120601315E-03
+4.957200E-06,-2.125626430E-03
+4.964000E-06,-2.929646522E-03
+4.970800E-06,-2.778892755E-03
+4.977600E-06,+1.894474030E-03
+4.984400E-06,+30.989951105E-03
+4.991200E-06,+62.949749758E-03
+4.998000E-06,+80.688443035E-03
+5.004800E-06,+70.738694398E-03
+5.011600E-06,+37.020101794E-03
+5.018400E-06,+25.211056694E-03
+5.025200E-06,+10.788946296E-03
+5.032000E-06,+7.522614673E-03
+5.038800E-06,+1.241207705E-03
+5.045600E-06,+487.438869E-06
+5.052400E-06,-1.321606338E-03
+5.059200E-06,-2.125626430E-03
+5.066000E-06,-2.427133964E-03
+5.072800E-06,-1.974872663E-03
+5.079600E-06,+8.778896066E-03
+5.086400E-06,+40.638192208E-03
+5.093200E-06,+70.989950676E-03
+5.100000E-06,+83.100503311E-03
+5.106800E-06,+64.155779895E-03
+5.113600E-06,+29.633167200E-03
+5.120400E-06,+21.693468792E-03
+5.127200E-06,+9.130654857E-03
+5.134000E-06,+5.462313187E-03
+5.140800E-06,+1.894474030E-03
+5.147600E-06,-1.321606338E-03
+5.154400E-06,-1.321606338E-03
+5.161200E-06,-2.929646522E-03
+5.168000E-06,-2.125626430E-03
+5.174800E-06,-1.321606338E-03
+5.181600E-06,+18.276383402E-03
+5.188400E-06,+52.698493586E-03
+5.195200E-06,+80.638191779E-03
+5.202000E-06,+83.100503311E-03
+5.208800E-06,+56.819096557E-03
+5.215600E-06,+27.221106924E-03
+5.222400E-06,+18.979900982E-03
+5.229200E-06,+9.934674948E-03
+5.236000E-06,+4.658293095E-03
+5.242800E-06,+1.894474030E-03
+5.249600E-06,-1.924621407E-03
+5.256400E-06,-1.773867640E-03
+5.263200E-06,-2.929646522E-03
+5.270000E-06,-2.125626430E-03
+5.276800E-06,+2.195981564E-03
+5.283600E-06,+31.140704872E-03
+5.290400E-06,+65.512563800E-03
+5.297200E-06,+88.678392698E-03
+5.304000E-06,+82.597990753E-03
+5.310800E-06,+48.929649405E-03
+5.317600E-06,+28.427137062E-03
+5.324400E-06,+16.567840707E-03
+5.331200E-06,+9.934674948E-03
+5.338000E-06,+3.854273004E-03
+5.344800E-06,+1.793971518E-03
+5.351600E-06,-1.723616384E-03
+5.358400E-06,-1.623113872E-03
+5.365200E-06,-2.125626430E-03
+5.372000E-06,-2.125626430E-03
+5.378800E-06,+10.386936250E-03
+5.385600E-06,+44.959800201E-03
+5.392400E-06,+79.482412897E-03
+5.399200E-06,+96.718593617E-03
+5.406000E-06,+80.889448058E-03
+5.412800E-06,+43.301508762E-03
+5.419600E-06,+29.432162177E-03
+5.426400E-06,+13.653267873E-03
+5.433200E-06,+9.180906112E-03
+5.440000E-06,+2.396986587E-03
+5.446800E-06,+989.951426E-06
+5.453600E-06,-668.340013E-06
+5.460400E-06,-2.125626430E-03
+5.467200E-06,-2.125626430E-03
+5.474000E-06,-819.093781E-06
+5.480800E-06,+22.597991396E-03
+5.487600E-06,+60.889448272E-03
+5.494400E-06,+94.155779574E-03
+5.501200E-06,+101.592965424E-03
+5.508000E-06,+77.221106389E-03
+5.514800E-06,+40.236182162E-03
+5.521600E-06,+27.020101901E-03
+5.528400E-06,+12.346735224E-03
+5.535200E-06,+8.326634765E-03
+5.542000E-06,+3.502514213E-03
+5.548800E-06,+185.931334E-06
+5.555600E-06,-1.321606338E-03
+5.562400E-06,-2.125626430E-03
+5.569200E-06,-1.321606338E-03
+5.576000E-06,+4.105529282E-03
+5.582800E-06,+37.723619374E-03
+5.589600E-06,+77.371860156E-03
+5.596400E-06,+106.718593510E-03
+5.603200E-06,+104.005025700E-03
+5.610000E-06,+71.592965745E-03
+5.616800E-06,+36.366835469E-03
+5.623600E-06,+24.809046648E-03
+5.630400E-06,+12.849247782E-03
+5.637200E-06,+6.768845837E-03
+5.644000E-06,+2.698494121E-03
+5.650800E-06,-517.586246E-06
+5.657600E-06,-1.321606338E-03
+5.664400E-06,-2.577887732E-03
+5.671200E-06,-1.321606338E-03
+5.678000E-06,+12.949750293E-03
+5.684800E-06,+53.150754888E-03
+5.691600E-06,+92.346734367E-03
+5.698400E-06,+115.562814521E-03
+5.705200E-06,+103.251256864E-03
+5.712000E-06,+64.356784918E-03
+5.718800E-06,+35.663317889E-03
+5.725600E-06,+22.396986373E-03
+5.732400E-06,+13.150755316E-03
+5.739200E-06,+5.914574489E-03
+5.746000E-06,+2.698494121E-03
+5.752800E-06,-517.586246E-06
+5.759600E-06,-1.924621407E-03
+5.766400E-06,-2.427133964E-03
+5.773200E-06,-517.586246E-06
+5.780000E-06,+26.618091855E-03
+5.786800E-06,+69.030151702E-03
+5.793600E-06,+106.668342254E-03
+5.800400E-06,+119.733668747E-03
+5.807200E-06,+98.376885056E-03
+5.814000E-06,+56.366835255E-03
+5.820800E-06,+35.412061610E-03
+5.827600E-06,+18.376885913E-03
+5.834400E-06,+12.045227690E-03
+5.841200E-06,+4.306534305E-03
+5.848000E-06,+1.442212728E-03
+5.854800E-06,-517.586246E-06
+5.861600E-06,-1.472360105E-03
+5.868400E-06,-1.321606338E-03
+5.875200E-06,+5.110554397E-03
+5.882000E-06,+39.934674627E-03
+5.888800E-06,+84.306533448E-03
+5.895600E-06,+116.467337124E-03
+5.902400E-06,+118.929648655E-03
+5.909200E-06,+87.974875118E-03
+5.916000E-06,+46.718594152E-03
+5.922800E-06,+32.346735010E-03
+5.929600E-06,+14.959800523E-03
+5.936400E-06,+10.437187506E-03
+5.943200E-06,+3.502514213E-03
+5.950000E-06,+1.090453938E-03
+5.956800E-06,-517.586246E-06
+5.963600E-06,-2.125626430E-03
+5.970400E-06,-1.773867640E-03
+5.977200E-06,+13.100504060E-03
+5.984000E-06,+54.105528747E-03
+5.990800E-06,+95.713568502E-03
+5.997600E-06,+122.095477767E-03
+6.004400E-06,+113.000000478E-03
+6.011200E-06,+75.914573739E-03
+6.018000E-06,+39.231157047E-03
+6.024800E-06,+27.371860691E-03
+6.031600E-06,+14.758795500E-03
+6.038400E-06,+7.221107138E-03
+6.045200E-06,+2.748745377E-03
+6.052000E-06,-165.827456E-06
+6.058800E-06,-1.321606338E-03
+6.065600E-06,-2.728641499E-03
+6.072400E-06,-165.827456E-06
+6.079200E-06,+22.748745163E-03
+6.086000E-06,+65.613066312E-03
+6.092800E-06,+105.211055838E-03
+6.099600E-06,+121.492462698E-03
+6.106400E-06,+102.748744306E-03
+6.113200E-06,+61.492463341E-03
+6.120000E-06,+37.271358073E-03
+6.126800E-06,+20.386936143E-03
+6.133600E-06,+13.150755316E-03
+6.140400E-06,+4.809046863E-03
+6.147200E-06,+1.944725285E-03
+6.154000E-06,-819.093781E-06
+6.160800E-06,-1.321606338E-03
+6.167600E-06,-2.125626430E-03
+6.174400E-06,+1.743720262E-03
+6.181200E-06,+33.201006358E-03
+6.188000E-06,+76.065327507E-03
+6.194800E-06,+109.231156297E-03
+6.201600E-06,+117.020100937E-03
+6.208400E-06,+88.276382652E-03
+6.215200E-06,+47.020101687E-03
+6.222000E-06,+31.542714918E-03
+6.228800E-06,+15.462313080E-03
+6.235600E-06,+9.532664903E-03
+6.242400E-06,+3.502514213E-03
+6.249200E-06,+1.090453938E-03
+6.256000E-06,-1.321606338E-03
+6.262800E-06,-2.778892755E-03
+6.269600E-06,-2.125626430E-03
+6.276400E-06,+6.567840814E-03
+6.283200E-06,+42.849247460E-03
+6.290000E-06,+82.497488242E-03
+6.296800E-06,+109.884422622E-03
+6.303600E-06,+105.763819651E-03
+6.310400E-06,+70.587940631E-03
+6.317200E-06,+36.517589237E-03
+6.324000E-06,+25.110554183E-03
+6.330800E-06,+13.150755316E-03
+6.337600E-06,+6.316584535E-03
+6.344400E-06,+2.698494121E-03
+6.351200E-06,-517.586246E-06
+6.358000E-06,-1.321606338E-03
+6.364800E-06,-2.929646522E-03
+6.371600E-06,-1.472360105E-03
+6.378400E-06,+12.497488991E-03
+6.385200E-06,+50.889448379E-03
+6.392000E-06,+86.869347491E-03
+6.398800E-06,+105.713568395E-03
+6.405600E-06,+91.492463020E-03
+6.412400E-06,+52.949749865E-03
+6.419200E-06,+32.497488777E-03
+6.426000E-06,+16.718594474E-03
+6.432800E-06,+10.638192529E-03
+6.439600E-06,+3.502514213E-03
+6.446400E-06,+1.592966495E-03
+6.453200E-06,-517.586246E-06
+6.460000E-06,-1.623113872E-03
+6.466800E-06,-2.929646522E-03
+6.473600E-06,-1.120601315E-03
+6.480400E-06,+19.231157261E-03
+6.487200E-06,+57.321609114E-03
+6.494000E-06,+90.085427859E-03
+6.500800E-06,+99.030151381E-03
+6.507600E-06,+74.758794857E-03
+6.514400E-06,+37.773870630E-03
+6.521200E-06,+26.065328042E-03
+6.528000E-06,+11.894473922E-03
+6.534800E-06,+7.422112161E-03
+6.541600E-06,+2.698494121E-03
+6.548400E-06,-15.073689E-06
+6.555200E-06,-1.321606338E-03
+6.562000E-06,-2.929646522E-03
+6.568800E-06,-2.125626430E-03
+6.575600E-06,+286.433846E-06
+6.582400E-06,+26.668343111E-03
+6.589200E-06,+62.949749758E-03
+6.596000E-06,+89.633166557E-03
+6.602800E-06,+89.231156511E-03
+6.609600E-06,+57.924624183E-03
+6.616400E-06,+29.733669711E-03
+6.623200E-06,+19.633167307E-03
+6.630000E-06,+10.738695040E-03
+6.636800E-06,+4.306534305E-03
+6.643600E-06,+1.291458961E-03
+6.650400E-06,-819.093781E-06
+6.657200E-06,-2.125626430E-03
+6.664000E-06,-2.929646522E-03
+6.670800E-06,-2.929646522E-03
+6.677600E-06,+3.954775515E-03
+6.684400E-06,+33.703518915E-03
+6.691200E-06,+67.773870309E-03
+6.698000E-06,+87.120603770E-03
+6.704800E-06,+76.366835041E-03
+6.711600E-06,+42.648242437E-03
+6.718400E-06,+26.819096878E-03
+6.725200E-06,+13.201006572E-03
+6.732000E-06,+8.678393555E-03
+6.738800E-06,+1.793971518E-03
+6.745600E-06,+487.438869E-06
+6.752400E-06,-1.321606338E-03
+6.759200E-06,-2.125626430E-03
+6.766000E-06,-2.125626430E-03
+6.772800E-06,-2.125626430E-03
+6.779600E-06,+10.035177460E-03
+6.786400E-06,+41.743719834E-03
+6.793200E-06,+73.351759696E-03
